system_c/mp2/mp2/wave1.vcd
$date
     Apr 05, 2020       19:18:21
$end

$version
 SystemC 2.3.1-Accellera --- Mar  1 2020 18:17:32
$end

$timescale
     1 ps
$end

$scope module SystemC $end
$var wire    1  aaaaa  i_en       $end
$var wire    4  aaaab  i_code [3:0]  $end
$var wire    1  aaaac  o_A       $end
$var wire    1  aaaad  o_L       $end
$var wire    1  aaaae  o_B       $end
$upscope $end
$enddefinitions  $end

$comment
All initial values are dumped below at time 0 sec = 0 timescale units.
$end

$dumpvars
0aaaaa
b0 aaaab
zaaaac
zaaaad
zaaaae
$end

#10000
1aaaaa
0aaaac
0aaaad
0aaaae

#20000
0aaaaa
b1 aaaab
zaaaac
zaaaad
zaaaae

#30000
1aaaaa
0aaaac
0aaaad
0aaaae

#40000
0aaaaa
b10 aaaab
zaaaac
zaaaad
zaaaae

#50000
1aaaaa
0aaaac
1aaaad
0aaaae

#60000
0aaaaa
b11 aaaab
zaaaac
zaaaad
zaaaae

#70000
1aaaaa
0aaaac
1aaaad
0aaaae

#80000
0aaaaa
b100 aaaab
zaaaac
zaaaad
zaaaae

#90000
1aaaaa
0aaaac
1aaaad
0aaaae

#100000
0aaaaa
b101 aaaab
zaaaac
zaaaad
zaaaae

#110000
1aaaaa
0aaaac
0aaaad
0aaaae

#120000
0aaaaa
b110 aaaab
zaaaac
zaaaad
zaaaae

#130000
1aaaaa
0aaaac
0aaaad
0aaaae

#140000
0aaaaa
b111 aaaab
zaaaac
zaaaad
zaaaae

#150000
1aaaaa
0aaaac
0aaaad
0aaaae

#160000
0aaaaa
b1000 aaaab
zaaaac
zaaaad
zaaaae

#170000
1aaaaa
0aaaac
0aaaad
0aaaae

#180000
0aaaaa
b1001 aaaab
zaaaac
zaaaad
zaaaae

#190000
1aaaaa
0aaaac
0aaaad
0aaaae

#200000
0aaaaa
b1010 aaaab
zaaaac
zaaaad
zaaaae

#210000
1aaaaa
1aaaac
0aaaad
0aaaae

#220000
0aaaaa
b1011 aaaab
zaaaac
zaaaad
zaaaae

#230000
1aaaaa
1aaaac
0aaaad
0aaaae

#240000
0aaaaa
b1100 aaaab
zaaaac
zaaaad
zaaaae

#250000
1aaaaa
1aaaac
0aaaad
0aaaae

#260000
0aaaaa
b1101 aaaab
zaaaac
zaaaad
zaaaae

#270000
1aaaaa
0aaaac
0aaaad
0aaaae

#280000
0aaaaa
b1110 aaaab
zaaaac
zaaaad
zaaaae

#290000
1aaaaa
0aaaac
1aaaad
0aaaae

#300000
0aaaaa
b1111 aaaab
zaaaac
zaaaad
zaaaae

#310000
1aaaaa
0aaaac
0aaaad
1aaaae

#320000
0aaaaa
b0 aaaab
zaaaac
zaaaad
zaaaae

#330000
1aaaaa
0aaaac
0aaaad
0aaaae

