system_c/mp2/mp2/wave1.vcd
$date
     Apr 04, 2020       14:29:14
$end

$version
 SystemC 2.3.1-Accellera --- Mar  1 2020 18:17:32
$end

$timescale
     1 ps
$end

$scope module SystemC $end
$var wire    2  aaaaa  i_code [1:0]  $end
$var wire    4  aaaab  o_code [3:0]  $end
$upscope $end
$enddefinitions  $end

$comment
All initial values are dumped below at time 0 sec = 0 timescale units.
$end

$dumpvars
b0 aaaaa
b1110 aaaab
$end

#10000
b1 aaaaa
b1101 aaaab

#20000
b10 aaaaa
b1011 aaaab

#30000
b11 aaaaa
b111 aaaab

#40000
b0 aaaaa
b1110 aaaab

#50000
b1 aaaaa
b1101 aaaab

#60000
b10 aaaaa
b1011 aaaab

#70000
b11 aaaaa
b111 aaaab

#80000
b0 aaaaa
b1110 aaaab

#90000
b1 aaaaa
b1101 aaaab

#100000
b10 aaaaa
b1011 aaaab

#110000
b11 aaaaa
b111 aaaab

#120000
b0 aaaaa
b1110 aaaab

#130000
b1 aaaaa
b1101 aaaab

#140000
b10 aaaaa
b1011 aaaab

#150000
b11 aaaaa
b111 aaaab

#160000
b0 aaaaa
b1110 aaaab

