system_c/mp2/mp2/wave1.vcd
$date
     Apr 05, 2020       20:30:48
$end

$version
 SystemC 2.3.1-Accellera --- Mar  1 2020 18:17:32
$end

$timescale
     1 ps
$end

$scope module SystemC $end
$var wire    1  aaaaa  i_a       $end
$var wire    1  aaaab  i_b       $end
$var wire    1  aaaac  i_c       $end
$var wire    1  aaaad  i_d       $end
$var wire    1  aaaae  i_cs       $end
$var wire    1  aaaaf  i_n_cs_0       $end
$var wire    1  aaaag  i_n_cs_1       $end
$var wire    1  aaaah  o_0       $end
$var wire    1  aaaai  o_1       $end
$var wire    1  aaaaj  o_2       $end
$var wire    1  aaaak  o_3       $end
$var wire    1  aaaal  o_4       $end
$var wire    1  aaaam  o_5       $end
$var wire    1  aaaan  o_6       $end
$var wire    1  aaaao  o_7       $end
$var wire    1  aaaap  o_8       $end
$var wire    1  aaaaq  o_9       $end
$upscope $end
$enddefinitions  $end

$comment
All initial values are dumped below at time 0 sec = 0 timescale units.
$end

$dumpvars
0aaaaa
0aaaab
0aaaac
0aaaad
0aaaae
0aaaaf
0aaaag
0aaaah
0aaaai
0aaaaj
0aaaak
0aaaal
0aaaam
0aaaan
0aaaao
0aaaap
0aaaaq
$end

#10000
1aaaaa

#20000
0aaaaa
1aaaab

#30000
1aaaaa

#40000
0aaaaa
0aaaab
1aaaac

#50000
1aaaaa

#60000
0aaaaa
1aaaab

#70000
1aaaaa

#80000
0aaaaa
0aaaab
0aaaac
1aaaad

#90000
1aaaaa

#100000
0aaaaa
1aaaab

#110000
1aaaaa

#120000
0aaaaa
0aaaab
1aaaac

#130000
1aaaaa

#140000
0aaaaa
1aaaab

#150000
1aaaaa

#160000
0aaaaa
0aaaab
0aaaac
0aaaad
1aaaae
1aaaah

#170000
1aaaaa
0aaaah
1aaaai

#180000
0aaaaa
1aaaab
0aaaai
1aaaaj

#190000
1aaaaa
0aaaaj
1aaaak

#200000
0aaaaa
0aaaab
1aaaac
0aaaak
1aaaal

#210000
1aaaaa
0aaaal
1aaaam

#220000
0aaaaa
1aaaab
0aaaam
1aaaan

#230000
1aaaaa
0aaaan
1aaaao

#240000
0aaaaa
0aaaab
0aaaac
1aaaad
0aaaao
1aaaap

#250000
1aaaaa
0aaaap
1aaaaq

#260000
0aaaaa
1aaaab
0aaaaq

#270000
1aaaaa

#280000
0aaaaa
0aaaab
1aaaac

#290000
1aaaaa

#300000
0aaaaa
1aaaab

#310000
1aaaaa

#320000
0aaaaa
0aaaab
0aaaac
0aaaad
0aaaae
1aaaaf

#330000
1aaaaa

#340000
0aaaaa
1aaaab

#350000
1aaaaa

#360000
0aaaaa
0aaaab
1aaaac

#370000
1aaaaa

#380000
0aaaaa
1aaaab

#390000
1aaaaa

#400000
0aaaaa
0aaaab
0aaaac
1aaaad

#410000
1aaaaa

#420000
0aaaaa
1aaaab

#430000
1aaaaa

#440000
0aaaaa
0aaaab
1aaaac

#450000
1aaaaa

#460000
0aaaaa
1aaaab

#470000
1aaaaa

#480000
0aaaaa
0aaaab
0aaaac
0aaaad
1aaaae

#490000
1aaaaa

#500000
0aaaaa
1aaaab

#510000
1aaaaa

#520000
0aaaaa
0aaaab
1aaaac

#530000
1aaaaa

#540000
0aaaaa
1aaaab

#550000
1aaaaa

#560000
0aaaaa
0aaaab
0aaaac
1aaaad

#570000
1aaaaa

#580000
0aaaaa
1aaaab

#590000
1aaaaa

#600000
0aaaaa
0aaaab
1aaaac

#610000
1aaaaa

#620000
0aaaaa
1aaaab

#630000
1aaaaa

#640000
0aaaaa
0aaaab
0aaaac
0aaaad
0aaaae
0aaaaf
1aaaag

#650000
1aaaaa

#660000
0aaaaa
1aaaab

#670000
1aaaaa

#680000
0aaaaa
0aaaab
1aaaac

#690000
1aaaaa

#700000
0aaaaa
1aaaab

#710000
1aaaaa

#720000
0aaaaa
0aaaab
0aaaac
1aaaad

#730000
1aaaaa

#740000
0aaaaa
1aaaab

#750000
1aaaaa

#760000
0aaaaa
0aaaab
1aaaac

#770000
1aaaaa

#780000
0aaaaa
1aaaab

#790000
1aaaaa

#800000
0aaaaa
0aaaab
0aaaac
0aaaad
1aaaae

#810000
1aaaaa

#820000
0aaaaa
1aaaab

#830000
1aaaaa

#840000
0aaaaa
0aaaab
1aaaac

#850000
1aaaaa

#860000
0aaaaa
1aaaab

#870000
1aaaaa

#880000
0aaaaa
0aaaab
0aaaac
1aaaad

#890000
1aaaaa

#900000
0aaaaa
1aaaab

#910000
1aaaaa

#920000
0aaaaa
0aaaab
1aaaac

#930000
1aaaaa

#940000
0aaaaa
1aaaab

#950000
1aaaaa

#960000
0aaaaa
0aaaab
0aaaac
0aaaad
0aaaae
1aaaaf

#970000
1aaaaa

#980000
0aaaaa
1aaaab

#990000
1aaaaa

#1000000
0aaaaa
0aaaab
1aaaac

#1010000
1aaaaa

#1020000
0aaaaa
1aaaab

#1030000
1aaaaa

#1040000
0aaaaa
0aaaab
0aaaac
1aaaad

#1050000
1aaaaa

#1060000
0aaaaa
1aaaab

#1070000
1aaaaa

#1080000
0aaaaa
0aaaab
1aaaac

#1090000
1aaaaa

#1100000
0aaaaa
1aaaab

#1110000
1aaaaa

#1120000
0aaaaa
0aaaab
0aaaac
0aaaad
1aaaae

#1130000
1aaaaa

#1140000
0aaaaa
1aaaab

#1150000
1aaaaa

#1160000
0aaaaa
0aaaab
1aaaac

#1170000
1aaaaa

#1180000
0aaaaa
1aaaab

#1190000
1aaaaa

#1200000
0aaaaa
0aaaab
0aaaac
1aaaad

#1210000
1aaaaa

#1220000
0aaaaa
1aaaab

#1230000
1aaaaa

#1240000
0aaaaa
0aaaab
1aaaac

#1250000
1aaaaa

#1260000
0aaaaa
1aaaab

#1270000
1aaaaa

#1280000
0aaaaa
0aaaab
0aaaac
0aaaad
0aaaae
0aaaaf
0aaaag

#1290000
1aaaaa

#1300000
0aaaaa
1aaaab

#1310000
1aaaaa

#1320000
0aaaaa
0aaaab
1aaaac

#1330000
1aaaaa

#1340000
0aaaaa
1aaaab

#1350000
1aaaaa

#1360000
0aaaaa
0aaaab
0aaaac
1aaaad

#1370000
1aaaaa

#1380000
0aaaaa
1aaaab

#1390000
1aaaaa

#1400000
0aaaaa
0aaaab
1aaaac

#1410000
1aaaaa

#1420000
0aaaaa
1aaaab

#1430000
1aaaaa

#1440000
0aaaaa
0aaaab
0aaaac
0aaaad
1aaaae
1aaaah

#1450000
1aaaaa
0aaaah
1aaaai

#1460000
0aaaaa
1aaaab
0aaaai
1aaaaj

#1470000
1aaaaa
0aaaaj
1aaaak

#1480000
0aaaaa
0aaaab
1aaaac
0aaaak
1aaaal

#1490000
1aaaaa
0aaaal
1aaaam

#1500000
0aaaaa
1aaaab
0aaaam
1aaaan

#1510000
1aaaaa
0aaaan
1aaaao

#1520000
0aaaaa
0aaaab
0aaaac
1aaaad
0aaaao
1aaaap

#1530000
1aaaaa
0aaaap
1aaaaq

#1540000
0aaaaa
1aaaab
0aaaaq

#1550000
1aaaaa

#1560000
0aaaaa
0aaaab
1aaaac

#1570000
1aaaaa

#1580000
0aaaaa
1aaaab

#1590000
1aaaaa

#1600000
0aaaaa
0aaaab
0aaaac
0aaaad
0aaaae
1aaaaf

#1610000
1aaaaa

#1620000
0aaaaa
1aaaab

#1630000
1aaaaa

#1640000
0aaaaa
0aaaab
1aaaac

#1650000
1aaaaa

#1660000
0aaaaa
1aaaab

#1670000
1aaaaa

#1680000
0aaaaa
0aaaab
0aaaac
1aaaad

#1690000
1aaaaa

#1700000
0aaaaa
1aaaab

#1710000
1aaaaa

#1720000
0aaaaa
0aaaab
1aaaac

#1730000
1aaaaa

#1740000
0aaaaa
1aaaab

#1750000
1aaaaa

#1760000
0aaaaa
0aaaab
0aaaac
0aaaad
1aaaae

#1770000
1aaaaa

#1780000
0aaaaa
1aaaab

#1790000
1aaaaa

#1800000
0aaaaa
0aaaab
1aaaac

#1810000
1aaaaa

#1820000
0aaaaa
1aaaab

#1830000
1aaaaa

#1840000
0aaaaa
0aaaab
0aaaac
1aaaad

#1850000
1aaaaa

#1860000
0aaaaa
1aaaab

#1870000
1aaaaa

#1880000
0aaaaa
0aaaab
1aaaac

#1890000
1aaaaa

#1900000
0aaaaa
1aaaab

#1910000
1aaaaa

#1920000
0aaaaa
0aaaab
0aaaac
0aaaad
0aaaae
0aaaaf
1aaaag

#1930000
1aaaaa

#1940000
0aaaaa
1aaaab

#1950000
1aaaaa

#1960000
0aaaaa
0aaaab
1aaaac

#1970000
1aaaaa

#1980000
0aaaaa
1aaaab

#1990000
1aaaaa

#2000000
0aaaaa
0aaaab
0aaaac
1aaaad

#2010000
1aaaaa

#2020000
0aaaaa
1aaaab

#2030000
1aaaaa

#2040000
0aaaaa
0aaaab
1aaaac

#2050000
1aaaaa

#2060000
0aaaaa
1aaaab

#2070000
1aaaaa

#2080000
0aaaaa
0aaaab
0aaaac
0aaaad
1aaaae

#2090000
1aaaaa

#2100000
0aaaaa
1aaaab

#2110000
1aaaaa

#2120000
0aaaaa
0aaaab
1aaaac

#2130000
1aaaaa

#2140000
0aaaaa
1aaaab

#2150000
1aaaaa

#2160000
0aaaaa
0aaaab
0aaaac
1aaaad

#2170000
1aaaaa

#2180000
0aaaaa
1aaaab

#2190000
1aaaaa

#2200000
0aaaaa
0aaaab
1aaaac

#2210000
1aaaaa

#2220000
0aaaaa
1aaaab

#2230000
1aaaaa

#2240000
0aaaaa
0aaaab
0aaaac
0aaaad
0aaaae
1aaaaf

#2250000
1aaaaa

#2260000
0aaaaa
1aaaab

#2270000
1aaaaa

#2280000
0aaaaa
0aaaab
1aaaac

#2290000
1aaaaa

#2300000
0aaaaa
1aaaab

#2310000
1aaaaa

#2320000
0aaaaa
0aaaab
0aaaac
1aaaad

#2330000
1aaaaa

#2340000
0aaaaa
1aaaab

#2350000
1aaaaa

#2360000
0aaaaa
0aaaab
1aaaac

#2370000
1aaaaa

#2380000
0aaaaa
1aaaab

#2390000
1aaaaa

#2400000
0aaaaa
0aaaab
0aaaac
0aaaad
1aaaae

#2410000
1aaaaa

#2420000
0aaaaa
1aaaab

#2430000
1aaaaa

#2440000
0aaaaa
0aaaab
1aaaac

#2450000
1aaaaa

#2460000
0aaaaa
1aaaab

#2470000
1aaaaa

#2480000
0aaaaa
0aaaab
0aaaac
1aaaad

#2490000
1aaaaa

#2500000
0aaaaa
1aaaab

#2510000
1aaaaa

#2520000
0aaaaa
0aaaab
1aaaac

#2530000
1aaaaa

#2540000
0aaaaa
1aaaab

#2550000
1aaaaa

#2560000
0aaaaa
0aaaab
0aaaac
0aaaad
0aaaae
0aaaaf
0aaaag

#2570000
1aaaaa

#2580000
0aaaaa
1aaaab

#2590000
1aaaaa

#2600000
0aaaaa
0aaaab
1aaaac

#2610000
1aaaaa

#2620000
0aaaaa
1aaaab

#2630000
1aaaaa

#2640000
0aaaaa
0aaaab
0aaaac
1aaaad

#2650000
1aaaaa

#2660000
0aaaaa
1aaaab

#2670000
1aaaaa

#2680000
0aaaaa
0aaaab
1aaaac

#2690000
1aaaaa

#2700000
0aaaaa
1aaaab

#2710000
1aaaaa

#2720000
0aaaaa
0aaaab
0aaaac
0aaaad
1aaaae
1aaaah

#2730000
1aaaaa
0aaaah
1aaaai

#2740000
0aaaaa
1aaaab
0aaaai
1aaaaj

#2750000
1aaaaa
0aaaaj
1aaaak

#2760000
0aaaaa
0aaaab
1aaaac
0aaaak
1aaaal

#2770000
1aaaaa
0aaaal
1aaaam

#2780000
0aaaaa
1aaaab
0aaaam
1aaaan

#2790000
1aaaaa
0aaaan
1aaaao

#2800000
0aaaaa
0aaaab
0aaaac
1aaaad
0aaaao
1aaaap

#2810000
1aaaaa
0aaaap
1aaaaq

#2820000
0aaaaa
1aaaab
0aaaaq

#2830000
1aaaaa

#2840000
0aaaaa
0aaaab
1aaaac

#2850000
1aaaaa

#2860000
0aaaaa
1aaaab

#2870000
1aaaaa

#2880000
0aaaaa
0aaaab
0aaaac
0aaaad
0aaaae
1aaaaf

#2890000
1aaaaa

#2900000
0aaaaa
1aaaab

