system_c/mp2/mp2/wave1.vcd
$date
     Mar 20, 2020       00:13:54
$end

$version
 SystemC 2.3.1-Accellera --- Mar  1 2020 18:17:32
$end

$timescale
     1 ps
$end

$scope module SystemC $end
$var wire    1  aaaaa  i_en       $end
$var wire    4  aaaab  i_code [3:0]  $end
$var wire    2  aaaac  i_sel_code [1:0]  $end
$var wire    1  aaaad  o_f       $end
$upscope $end
$enddefinitions  $end

$comment
All initial values are dumped below at time 0 sec = 0 timescale units.
$end

$dumpvars
0aaaaa
b0 aaaab
b0 aaaac
0aaaad
$end

#10000
b1 aaaac

#20000
b10 aaaac

#30000
b11 aaaac

#40000
1aaaaa
b0 aaaac

#50000
b1 aaaac

#60000
b10 aaaac

#70000
b11 aaaac

#80000
0aaaaa
b1 aaaab
b0 aaaac

#90000
b1 aaaac

#100000
b10 aaaac

#110000
b11 aaaac

#120000
1aaaaa
b0 aaaac
1aaaad

#130000
b1 aaaac
0aaaad

#140000
b10 aaaac

#150000
b11 aaaac

#160000
0aaaaa
b10 aaaab
b0 aaaac

#170000
b1 aaaac

#180000
b10 aaaac

#190000
b11 aaaac

#200000
1aaaaa
b0 aaaac

#210000
b1 aaaac
1aaaad

#220000
b10 aaaac
0aaaad

#230000
b11 aaaac

#240000
0aaaaa
b11 aaaab
b0 aaaac

#250000
b1 aaaac

#260000
b10 aaaac

#270000
b11 aaaac

#280000
1aaaaa
b0 aaaac
1aaaad

#290000
b1 aaaac

#300000
b10 aaaac
0aaaad

#310000
b11 aaaac

#320000
0aaaaa
b100 aaaab
b0 aaaac

#330000
b1 aaaac

#340000
b10 aaaac

#350000
b11 aaaac

#360000
1aaaaa
b0 aaaac

#370000
b1 aaaac

#380000
b10 aaaac
1aaaad

#390000
b11 aaaac
0aaaad

#400000
0aaaaa
b101 aaaab
b0 aaaac

#410000
b1 aaaac

#420000
b10 aaaac

#430000
b11 aaaac

#440000
1aaaaa
b0 aaaac
1aaaad

#450000
b1 aaaac
0aaaad

#460000
b10 aaaac
1aaaad

#470000
b11 aaaac
0aaaad

#480000
0aaaaa
b110 aaaab
b0 aaaac

#490000
b1 aaaac

#500000
b10 aaaac

#510000
b11 aaaac

#520000
1aaaaa
b0 aaaac

#530000
b1 aaaac
1aaaad

#540000
b10 aaaac

#550000
b11 aaaac
0aaaad

#560000
0aaaaa
b111 aaaab
b0 aaaac

#570000
b1 aaaac

#580000
b10 aaaac

#590000
b11 aaaac

#600000
1aaaaa
b0 aaaac
1aaaad

#610000
b1 aaaac

#620000
b10 aaaac

#630000
b11 aaaac
0aaaad

#640000
0aaaaa
b1000 aaaab
b0 aaaac

#650000
b1 aaaac

#660000
b10 aaaac

#670000
b11 aaaac

#680000
1aaaaa
b0 aaaac

#690000
b1 aaaac

#700000
b10 aaaac

#710000
b11 aaaac
1aaaad

#720000
0aaaaa
b1001 aaaab
b0 aaaac
0aaaad

#730000
b1 aaaac

#740000
b10 aaaac

#750000
b11 aaaac

#760000
1aaaaa
b0 aaaac
1aaaad

#770000
b1 aaaac
0aaaad

#780000
b10 aaaac

#790000
b11 aaaac
1aaaad

#800000
0aaaaa
b1010 aaaab
b0 aaaac
0aaaad

#810000
b1 aaaac

#820000
b10 aaaac

#830000
b11 aaaac

#840000
1aaaaa
b0 aaaac

#850000
b1 aaaac
1aaaad

#860000
b10 aaaac
0aaaad

#870000
b11 aaaac
1aaaad

#880000
0aaaaa
b1011 aaaab
b0 aaaac
0aaaad

#890000
b1 aaaac

#900000
b10 aaaac

#910000
b11 aaaac

#920000
1aaaaa
b0 aaaac
1aaaad

#930000
b1 aaaac

#940000
b10 aaaac
0aaaad

#950000
b11 aaaac
1aaaad

#960000
0aaaaa
b1100 aaaab
b0 aaaac
0aaaad

#970000
b1 aaaac

#980000
b10 aaaac

#990000
b11 aaaac

#1000000
1aaaaa
b0 aaaac

#1010000
b1 aaaac

#1020000
b10 aaaac
1aaaad

#1030000
b11 aaaac

#1040000
0aaaaa
b1101 aaaab
b0 aaaac
0aaaad

#1050000
b1 aaaac

#1060000
b10 aaaac

#1070000
b11 aaaac

#1080000
1aaaaa
b0 aaaac
1aaaad

#1090000
b1 aaaac
0aaaad

#1100000
b10 aaaac
1aaaad

#1110000
b11 aaaac

#1120000
0aaaaa
b1110 aaaab
b0 aaaac
0aaaad

#1130000
b1 aaaac

#1140000
b10 aaaac

#1150000
b11 aaaac

#1160000
1aaaaa
b0 aaaac

#1170000
b1 aaaac
1aaaad

#1180000
b10 aaaac

#1190000
b11 aaaac

#1200000
0aaaaa
b1111 aaaab
b0 aaaac
0aaaad

#1210000
b1 aaaac

#1220000
b10 aaaac

#1230000
b11 aaaac

#1240000
1aaaaa
b0 aaaac
1aaaad

#1250000
b1 aaaac

#1260000
b10 aaaac

#1270000
b11 aaaac

#1280000
0aaaaa
b0 aaaab
b0 aaaac
0aaaad

#1290000
b1 aaaac

#1300000
b10 aaaac

#1310000
b11 aaaac

#1320000
1aaaaa
b0 aaaac

#1330000
b1 aaaac

#1340000
b10 aaaac

#1350000
b11 aaaac

